{
	"info": {
		"_postman_id": "5687f3f6-4cd1-465b-8cdd-143a30e18917",
		"name": "Hishabee API",
		"schema": "https://schema.getpostman.com/json/collection/v2.1.0/collection.json",
		"_exporter_id": "12193573"
	},
	"item": [
		{
			"name": "get all expense category for a single user",
			"request": {
				"method": "POST",
				"header": [],
				"body": {
					"mode": "formdata",
					"formdata": [
						{
							"key": "user_id",
							"value": "1",
							"description": "user id filed is required",
							"type": "text"
						},
						{
							"key": "sortType",
							"value": "by_cost_low_to_high",
							"description": "default return by time new to old| by_time_old_to_new | by_cost_low_to_high | by_cost_high_to_low",
							"type": "text"
						},
						{
							"key": "filter_by_category",
							"value": "2",
							"description": "category id 1 or 2 or etc",
							"type": "text",
							"disabled": true
						},
						{
							"key": "take_item",
							"value": "5",
							"description": "if null take all value | if set value then get that number of record",
							"type": "text",
							"disabled": true
						}
					]
				},
				"url": {
					"raw": "http://127.0.0.1:8000/api/v1/all_category",
					"protocol": "http",
					"host": [
						"127",
						"0",
						"0",
						"1"
					],
					"port": "8000",
					"path": [
						"api",
						"v1",
						"all_category"
					]
				}
			},
			"response": []
		},
		{
			"name": "get all expense items for a single user",
			"request": {
				"method": "POST",
				"header": [],
				"body": {
					"mode": "formdata",
					"formdata": [
						{
							"key": "user_id",
							"value": "1",
							"description": "user id filed is required",
							"type": "text"
						},
						{
							"key": "sortType",
							"value": "by_cost_high_to_low",
							"description": "default return by time new to old| by_time_old_to_new | by_cost_low_to_high | by_cost_high_to_low",
							"type": "text"
						},
						{
							"key": "filter_by_category",
							"value": "3",
							"description": "category id 1 or 2 or etc",
							"type": "text",
							"disabled": true
						},
						{
							"key": "take_item",
							"value": "1",
							"description": "if null take all value | if set value then get that number of record",
							"type": "text",
							"disabled": true
						},
						{
							"key": "search",
							"value": "Food",
							"type": "text",
							"disabled": true
						},
						{
							"key": "filter_start_date",
							"value": "2022-11-05",
							"description": "//date format 2022-10-12",
							"type": "text"
						},
						{
							"key": "filter_end_date",
							"value": "2022-11-06",
							"description": "//date format 2022-11-12",
							"type": "text"
						}
					]
				},
				"url": {
					"raw": "http://127.0.0.1:8000/api/v1/all_expense_item",
					"protocol": "http",
					"host": [
						"127",
						"0",
						"0",
						"1"
					],
					"port": "8000",
					"path": [
						"api",
						"v1",
						"all_expense_item"
					]
				}
			},
			"response": []
		},
		{
			"name": "Create Update category",
			"request": {
				"method": "POST",
				"header": [],
				"body": {
					"mode": "formdata",
					"formdata": [
						{
							"key": "user_id",
							"value": "1",
							"description": "user id filed is required",
							"type": "text"
						},
						{
							"key": "category_id",
							"value": "2",
							"description": "if Category id send then it update category otherwise it  create new category",
							"type": "text"
						},
						{
							"key": "category_name",
							"value": "Another One",
							"type": "text"
						},
						{
							"key": "attachment",
							"type": "file",
							"src": "/D:/images/62c41b6d9b51c_meghna-bank-ltd.png"
						}
					]
				},
				"url": {
					"raw": "http://127.0.0.1:8000/api/v1/add_update_category",
					"protocol": "http",
					"host": [
						"127",
						"0",
						"0",
						"1"
					],
					"port": "8000",
					"path": [
						"api",
						"v1",
						"add_update_category"
					]
				}
			},
			"response": []
		},
		{
			"name": "Create Update Expense  Item",
			"request": {
				"method": "POST",
				"header": [],
				"body": {
					"mode": "formdata",
					"formdata": [
						{
							"key": "user_id",
							"value": "1",
							"description": "user id filed is required",
							"type": "text"
						},
						{
							"key": "category_id",
							"value": "2",
							"type": "text"
						},
						{
							"key": "expense_item_id",
							"value": "9",
							"description": "if Expense item id send then it update expense item record otherwise it  create new expense item",
							"type": "text"
						},
						{
							"key": "cost_amount",
							"value": "1000",
							"type": "text"
						},
						{
							"key": "cost_via",
							"value": "nagad",
							"type": "text"
						},
						{
							"key": "description",
							"value": "family all",
							"type": "text"
						},
						{
							"key": "expense_date",
							"value": "2022-11-04",
							"description": "//date formate 2022-11-04",
							"type": "text"
						},
						{
							"key": "attachment",
							"type": "file",
							"src": "/D:/images/62c41ddfa0d37_bank-transfer-logo.png"
						}
					]
				},
				"url": {
					"raw": "http://127.0.0.1:8000/api/v1/add_update_expense_item",
					"protocol": "http",
					"host": [
						"127",
						"0",
						"0",
						"1"
					],
					"port": "8000",
					"path": [
						"api",
						"v1",
						"add_update_expense_item"
					]
				}
			},
			"response": []
		},
		{
			"name": "Delete Expense Item",
			"request": {
				"method": "POST",
				"header": [],
				"body": {
					"mode": "formdata",
					"formdata": [
						{
							"key": "user_id",
							"value": "1",
							"description": "user id filed is required",
							"type": "text"
						},
						{
							"key": "category_id",
							"value": "2",
							"description": "category id filed is required",
							"type": "text"
						},
						{
							"key": "expense_item_id",
							"value": "9",
							"description": "expense item id filed is required",
							"type": "text"
						}
					]
				},
				"url": {
					"raw": "http://127.0.0.1:8000/api/v1/delete_expense_item",
					"protocol": "http",
					"host": [
						"127",
						"0",
						"0",
						"1"
					],
					"port": "8000",
					"path": [
						"api",
						"v1",
						"delete_expense_item"
					]
				}
			},
			"response": []
		},
		{
			"name": "Delete Expense  category",
			"request": {
				"method": "POST",
				"header": [],
				"body": {
					"mode": "formdata",
					"formdata": [
						{
							"key": "user_id",
							"value": "1",
							"description": "user id filed is required",
							"type": "text"
						},
						{
							"key": "category_id",
							"value": "2",
							"description": "category id filed is required",
							"type": "text"
						}
					]
				},
				"url": {
					"raw": "http://127.0.0.1:8000/api/v1/delete_category",
					"protocol": "http",
					"host": [
						"127",
						"0",
						"0",
						"1"
					],
					"port": "8000",
					"path": [
						"api",
						"v1",
						"delete_category"
					]
				}
			},
			"response": []
		},
		{
			"name": "User Creation",
			"request": {
				"method": "POST",
				"header": [],
				"body": {
					"mode": "formdata",
					"formdata": [
						{
							"key": "phone",
							"value": "01811111111",
							"description": "phone  filed is required",
							"type": "text"
						},
						{
							"key": "name",
							"value": "Roktim",
							"description": "name  filed is required",
							"type": "text"
						},
						{
							"key": "address",
							"value": " Dhaka",
							"description": "address filed is required",
							"type": "text"
						},
						{
							"key": "password",
							"value": "111111",
							"description": "password filed is required",
							"type": "text"
						}
					]
				},
				"url": {
					"raw": "http://127.0.0.1:8000/api/v1/create_user",
					"protocol": "http",
					"host": [
						"127",
						"0",
						"0",
						"1"
					],
					"port": "8000",
					"path": [
						"api",
						"v1",
						"create_user"
					]
				}
			},
			"response": []
		},
		{
			"name": "Get User LIst",
			"protocolProfileBehavior": {
				"disableBodyPruning": true
			},
			"request": {
				"method": "GET",
				"header": [],
				"body": {
					"mode": "formdata",
					"formdata": []
				},
				"url": {
					"raw": "http://127.0.0.1:8000/api/v1/get_user_list",
					"protocol": "http",
					"host": [
						"127",
						"0",
						"0",
						"1"
					],
					"port": "8000",
					"path": [
						"api",
						"v1",
						"get_user_list"
					]
				}
			},
			"response": []
		}
	],
	"event": [
		{
			"listen": "prerequest",
			"script": {
				"type": "text/javascript",
				"exec": [
					"pm.environment.set('domain','http://127.0.0.1:8000/');"
				]
			}
		},
		{
			"listen": "test",
			"script": {
				"type": "text/javascript",
				"exec": [
					""
				]
			}
		}
	]
}